﻿{
  "dependencies": {
    "Microsoft.NETCore.UniversalWindowsPlatform": "5.2.2",
    "Microsoft.ProjectOxford.Common": "1.0.324",
    "Microsoft.ProjectOxford.Emotion": "1.0.336",
    "Microsoft.ProjectOxford.Face": "1.2.1.2",
    "Microsoft.ProjectOxford.Vision": "1.0.372",
    "Newtonsoft.Json": "9.0.1"
  },
  "frameworks": {
    "uap10.0": {}
  },
  "runtimes": {
    "win10-arm": {},
    "win10-arm-aot": {},
    "win10-x86": {},
    "win10-x86-aot": {},
    "win10-x64": {},
    "win10-x64-aot": {}
  }
}